Subject: Transport box shipped
From: <logistikwatch@seracell.de>
To: <logistikwatch@seracell.de>

Contract Id: 12345678
Box Id: TB0012345
CON: 987654321
IMEI: 8934077100003833462
Timestamp: 1463065928
